{
    "openapi": "3.0.0",
    "info": {
        "title": "Info test",
        "contact": {
            "email": "iskanderomanov@gmail.com"
        },
        "version": "1.0.0"
    },
    "paths": {
        "/api/v1/login": {
            "post": {
                "tags": [
                    "Authentication"
                ],
                "summary": "Login user",
                "description": "Login a user and return access token",
                "operationId": "e41a7652bde97382172dc8d81e157c7f",
                "requestBody": {
                    "required": true,
                    "content": {
                        "application/json": {
                            "schema": {
                                "required": [
                                    "email",
                                    "password"
                                ],
                                "properties": {
                                    "email": {
                                        "type": "string",
                                        "format": "email",
                                        "example": "dev@dev.dev"
                                    },
                                    "password": {
                                        "type": "string",
                                        "format": "password",
                                        "example": "develop123"
                                    }
                                },
                                "type": "object"
                            }
                        }
                    }
                },
                "responses": {
                    "200": {
                        "description": "Successful operation",
                        "content": {
                            "application/json": {
                                "schema": {
                                    "properties": {
                                        "data": {
                                            "$ref": "#/components/schemas/UserResource"
                                        },
                                        "access_token": {
                                            "type": "string"
                                        },
                                        "expiresAt": {
                                            "type": "string",
                                            "format": "date-time"
                                        }
                                    },
                                    "type": "object"
                                }
                            }
                        }
                    },
                    "422": {
                        "description": "Validation error",
                        "content": {
                            "application/json": {
                                "schema": {
                                    "properties": {
                                        "message": {
                                            "type": "string",
                                            "example": "The given data was invalid."
                                        },
                                        "errors": {
                                            "$ref": "#/components/schemas/ValidationError"
                                        }
                                    },
                                    "type": "object"
                                }
                            }
                        }
                    },
                    "401": {
                        "description": "Unauthorized",
                        "content": {
                            "application/json": {
                                "schema": {
                                    "properties": {
                                        "message": {
                                            "type": "string",
                                            "example": "Unauthorized"
                                        }
                                    },
                                    "type": "object"
                                }
                            }
                        }
                    }
                }
            }
        },
        "/api/v1/logout": {
            "post": {
                "tags": [
                    "Authentication"
                ],
                "summary": "Logout user",
                "description": "Logout currently authenticated user",
                "operationId": "2795bccc443b70a25e61d2f1646bbfe4",
                "responses": {
                    "200": {
                        "description": "Successfully logged out",
                        "content": {
                            "application/json": {
                                "schema": {
                                    "properties": {
                                        "message": {
                                            "type": "string",
                                            "example": "Successfully logged out"
                                        }
                                    },
                                    "type": "object"
                                }
                            }
                        }
                    },
                    "401": {
                        "description": "Unauthorized",
                        "content": {
                            "application/json": {
                                "schema": {
                                    "properties": {
                                        "message": {
                                            "type": "string",
                                            "example": "Unauthorized"
                                        }
                                    },
                                    "type": "object"
                                }
                            }
                        }
                    }
                },
                "security": [
                    {
                        "bearerAuth": []
                    }
                ]
            }
        },
        "/api/v1/get-user": {
            "get": {
                "tags": [
                    "User"
                ],
                "summary": "Get authenticated user",
                "description": "Retrieve information about the currently authenticated user",
                "operationId": "aa8632f5ca0f45e9799a82dfe3c0b8e4",
                "responses": {
                    "200": {
                        "description": "User details retrieved successfully",
                        "content": {
                            "application/json": {
                                "schema": {
                                    "properties": {
                                        "data": {
                                            "$ref": "#/components/schemas/UserResource"
                                        }
                                    },
                                    "type": "object"
                                }
                            }
                        }
                    },
                    "401": {
                        "description": "Unauthorized",
                        "content": {
                            "application/json": {
                                "schema": {
                                    "properties": {
                                        "message": {
                                            "type": "string",
                                            "example": "Unauthorized"
                                        }
                                    },
                                    "type": "object"
                                }
                            }
                        }
                    }
                },
                "security": [
                    {
                        "bearerAuth": []
                    }
                ]
            }
        },
        "/api/v1/departments": {
            "get": {
                "tags": [
                    "Department"
                ],
                "summary": "List departments",
                "description": "Retrieve a list of departments",
                "operationId": "7e1a83bace10c96ba8924021aa4e4b1a",
                "parameters": [
                    {
                        "name": "take",
                        "in": "query",
                        "description": "Number of records to take",
                        "required": false,
                        "schema": {
                            "type": "integer",
                            "format": "int32",
                            "maximum": 500,
                            "minimum": 0
                        }
                    },
                    {
                        "name": "skip",
                        "in": "query",
                        "description": "Number of records to skip",
                        "required": false,
                        "schema": {
                            "type": "integer"
                        }
                    },
                    {
                        "name": "from_created_at",
                        "in": "query",
                        "description": "Filter departments created after this date",
                        "required": false,
                        "schema": {
                            "type": "string",
                            "format": "date"
                        }
                    },
                    {
                        "name": "to_created_at",
                        "in": "query",
                        "description": "Filter departments created before this date",
                        "required": false,
                        "schema": {
                            "type": "string",
                            "format": "date"
                        }
                    },
                    {
                        "name": "order_by",
                        "in": "query",
                        "description": "Order by a specific field",
                        "required": false,
                        "schema": {
                            "type": "string"
                        }
                    },
                    {
                        "name": "direction",
                        "in": "query",
                        "description": "Sort direction (asc or desc)",
                        "required": false,
                        "schema": {
                            "type": "string",
                            "enum": [
                                "asc",
                                "desc"
                            ]
                        }
                    },
                    {
                        "name": "organization_id",
                        "in": "query",
                        "description": "Filter departments by organization ID",
                        "required": false,
                        "schema": {
                            "type": "integer"
                        }
                    }
                ],
                "responses": {
                    "200": {
                        "description": "Successful operation",
                        "content": {
                            "application/json": {
                                "schema": {
                                    "properties": {
                                        "data": {
                                            "$ref": "#/components/schemas/DepartmentResourceCollection"
                                        }
                                    },
                                    "type": "object"
                                }
                            }
                        }
                    },
                    "401": {
                        "description": "Unauthorized",
                        "content": {
                            "application/json": {
                                "schema": {
                                    "properties": {
                                        "message": {
                                            "type": "string",
                                            "example": "Unauthorized"
                                        }
                                    },
                                    "type": "object"
                                }
                            }
                        }
                    }
                },
                "security": [
                    {
                        "bearerAuth": []
                    }
                ]
            },
            "post": {
                "tags": [
                    "Department"
                ],
                "summary": "Create a new department",
                "description": "Create a new department record",
                "operationId": "405bed6491317136876f9413176ed084",
                "requestBody": {
                    "description": "Department data",
                    "required": true,
                    "content": {
                        "application/json": {
                            "schema": {
                                "required": [
                                    "name",
                                    "organization_id"
                                ],
                                "properties": {
                                    "name": {
                                        "type": "string",
                                        "example": "Marketing"
                                    },
                                    "description": {
                                        "type": "string",
                                        "example": "Description of the department"
                                    },
                                    "organization_id": {
                                        "type": "integer",
                                        "example": "1"
                                    }
                                },
                                "type": "object"
                            }
                        }
                    }
                },
                "responses": {
                    "201": {
                        "description": "Department created successfully",
                        "content": {
                            "application/json": {
                                "schema": {
                                    "properties": {
                                        "data": {
                                            "$ref": "#/components/schemas/DepartmentResource"
                                        }
                                    },
                                    "type": "object"
                                }
                            }
                        }
                    },
                    "401": {
                        "description": "Unauthorized",
                        "content": {
                            "application/json": {
                                "schema": {
                                    "properties": {
                                        "message": {
                                            "type": "string",
                                            "example": "Unauthorized"
                                        }
                                    },
                                    "type": "object"
                                }
                            }
                        }
                    },
                    "422": {
                        "description": "Validation error",
                        "content": {
                            "application/json": {
                                "schema": {
                                    "properties": {
                                        "message": {
                                            "type": "string",
                                            "example": "The given data was invalid."
                                        },
                                        "errors": {
                                            "$ref": "#/components/schemas/ValidationError"
                                        }
                                    },
                                    "type": "object"
                                }
                            }
                        }
                    }
                },
                "security": [
                    {
                        "bearerAuth": []
                    }
                ]
            }
        },
        "/api/v1/departments/{departmentId}": {
            "get": {
                "tags": [
                    "Department"
                ],
                "summary": "Get a department by ID",
                "description": "Retrieve a department record by its ID",
                "operationId": "2a5149a147819dcec8fc0cbc3aece84d",
                "parameters": [
                    {
                        "name": "departmentId",
                        "in": "path",
                        "description": "ID of the department to retrieve",
                        "required": true,
                        "schema": {
                            "type": "integer"
                        }
                    }
                ],
                "responses": {
                    "200": {
                        "description": "Department retrieved successfully",
                        "content": {
                            "application/json": {
                                "schema": {
                                    "properties": {
                                        "data": {
                                            "$ref": "#/components/schemas/DepartmentResource"
                                        }
                                    },
                                    "type": "object"
                                }
                            }
                        }
                    },
                    "401": {
                        "description": "Unauthorized",
                        "content": {
                            "application/json": {
                                "schema": {
                                    "properties": {
                                        "message": {
                                            "type": "string",
                                            "example": "Unauthorized"
                                        }
                                    },
                                    "type": "object"
                                }
                            }
                        }
                    },
                    "404": {
                        "description": "Department not found",
                        "content": {
                            "application/json": {
                                "schema": {
                                    "properties": {
                                        "message": {
                                            "type": "string",
                                            "example": "Department not found"
                                        }
                                    },
                                    "type": "object"
                                }
                            }
                        }
                    }
                },
                "security": [
                    {
                        "bearerAuth": []
                    }
                ]
            },
            "put": {
                "tags": [
                    "Department"
                ],
                "summary": "Update an existing department",
                "description": "Update an existing department record",
                "operationId": "83d4ae3a970ea821e0489d8f138f1df5",
                "parameters": [
                    {
                        "name": "departmentId",
                        "in": "path",
                        "description": "ID of the department to update",
                        "required": true,
                        "schema": {
                            "type": "integer"
                        }
                    }
                ],
                "requestBody": {
                    "description": "Updated department data",
                    "required": true,
                    "content": {
                        "application/json": {
                            "schema": {
                                "properties": {
                                    "name": {
                                        "type": "string",
                                        "example": "Marketing"
                                    },
                                    "description": {
                                        "type": "string",
                                        "example": "Description of the department"
                                    },
                                    "organization_id": {
                                        "type": "integer",
                                        "example": "1"
                                    }
                                },
                                "type": "object"
                            }
                        }
                    }
                },
                "responses": {
                    "200": {
                        "description": "Department updated successfully",
                        "content": {
                            "application/json": {
                                "schema": {
                                    "properties": {
                                        "data": {
                                            "$ref": "#/components/schemas/DepartmentResource"
                                        }
                                    },
                                    "type": "object"
                                }
                            }
                        }
                    },
                    "401": {
                        "description": "Unauthorized",
                        "content": {
                            "application/json": {
                                "schema": {
                                    "properties": {
                                        "message": {
                                            "type": "string",
                                            "example": "Unauthorized"
                                        }
                                    },
                                    "type": "object"
                                }
                            }
                        }
                    },
                    "404": {
                        "description": "Department not found",
                        "content": {
                            "application/json": {
                                "schema": {
                                    "properties": {
                                        "message": {
                                            "type": "string",
                                            "example": "Department not found"
                                        }
                                    },
                                    "type": "object"
                                }
                            }
                        }
                    },
                    "422": {
                        "description": "Validation error",
                        "content": {
                            "application/json": {
                                "schema": {
                                    "properties": {
                                        "message": {
                                            "type": "string",
                                            "example": "The given data was invalid."
                                        },
                                        "errors": {
                                            "$ref": "#/components/schemas/ValidationError"
                                        }
                                    },
                                    "type": "object"
                                }
                            }
                        }
                    }
                },
                "security": [
                    {
                        "bearerAuth": []
                    }
                ]
            },
            "delete": {
                "tags": [
                    "Department"
                ],
                "summary": "Delete a department by ID",
                "description": "Delete a department record by its ID",
                "operationId": "be9979f0a0cfd634119ce80392ddf77d",
                "parameters": [
                    {
                        "name": "departmentId",
                        "in": "path",
                        "description": "ID of the department to delete",
                        "required": true,
                        "schema": {
                            "type": "integer"
                        }
                    }
                ],
                "responses": {
                    "200": {
                        "description": "Department deleted successfully",
                        "content": {
                            "application/json": {
                                "schema": {
                                    "properties": {
                                        "message": {
                                            "type": "string",
                                            "example": "Successfully deleted"
                                        }
                                    },
                                    "type": "object"
                                }
                            }
                        }
                    },
                    "401": {
                        "description": "Unauthorized",
                        "content": {
                            "application/json": {
                                "schema": {
                                    "properties": {
                                        "message": {
                                            "type": "string",
                                            "example": "Unauthorized"
                                        }
                                    },
                                    "type": "object"
                                }
                            }
                        }
                    },
                    "404": {
                        "description": "Department not found",
                        "content": {
                            "application/json": {
                                "schema": {
                                    "properties": {
                                        "message": {
                                            "type": "string",
                                            "example": "Department not found"
                                        }
                                    },
                                    "type": "object"
                                }
                            }
                        }
                    }
                },
                "security": [
                    {
                        "bearerAuth": []
                    }
                ]
            }
        },
        "/api/v1/employees": {
            "get": {
                "tags": [
                    "Employee"
                ],
                "summary": "List employees",
                "description": "Retrieve a list of employees",
                "operationId": "4b40c2c4b37ad865bef9aa5f68c4bafe",
                "parameters": [
                    {
                        "name": "take",
                        "in": "query",
                        "description": "Number of records to take",
                        "required": false,
                        "schema": {
                            "type": "integer",
                            "format": "int32",
                            "maximum": 500,
                            "minimum": 0
                        }
                    },
                    {
                        "name": "skip",
                        "in": "query",
                        "description": "Number of records to skip",
                        "required": false,
                        "schema": {
                            "type": "integer"
                        }
                    },
                    {
                        "name": "from_created_at",
                        "in": "query",
                        "description": "Filter employees created after this date",
                        "required": false,
                        "schema": {
                            "type": "string",
                            "format": "date"
                        }
                    },
                    {
                        "name": "to_created_at",
                        "in": "query",
                        "description": "Filter employees created before this date",
                        "required": false,
                        "schema": {
                            "type": "string",
                            "format": "date"
                        }
                    },
                    {
                        "name": "order_by",
                        "in": "query",
                        "description": "Order by a specific field",
                        "required": false,
                        "schema": {
                            "type": "string"
                        }
                    },
                    {
                        "name": "direction",
                        "in": "query",
                        "description": "Sort direction (asc or desc)",
                        "required": false,
                        "schema": {
                            "type": "string",
                            "enum": [
                                "asc",
                                "desc"
                            ]
                        }
                    },
                    {
                        "name": "position_id",
                        "in": "query",
                        "description": "Filter employees by position ID",
                        "required": false,
                        "schema": {
                            "type": "integer"
                        }
                    }
                ],
                "responses": {
                    "200": {
                        "description": "Successful operation",
                        "content": {
                            "application/json": {
                                "schema": {
                                    "properties": {
                                        "data": {
                                            "$ref": "#/components/schemas/EmployeeResource"
                                        }
                                    },
                                    "type": "object"
                                }
                            }
                        }
                    },
                    "401": {
                        "description": "Unauthorized",
                        "content": {
                            "application/json": {
                                "schema": {
                                    "properties": {
                                        "message": {
                                            "type": "string",
                                            "example": "Unauthorized"
                                        }
                                    },
                                    "type": "object"
                                }
                            }
                        }
                    }
                },
                "security": [
                    {
                        "bearerAuth": []
                    }
                ]
            },
            "post": {
                "tags": [
                    "Employee"
                ],
                "summary": "Create a new employee",
                "description": "Create a new employee record",
                "operationId": "e61bc93d18af307a9c5af88c41c499ac",
                "requestBody": {
                    "description": "Employee data",
                    "required": true,
                    "content": {
                        "application/json": {
                            "schema": {
                                "required": [
                                    "first_name",
                                    "middle_name",
                                    "last_name",
                                    "birth_date",
                                    "is_man",
                                    "position_id"
                                ],
                                "properties": {
                                    "first_name": {
                                        "type": "string",
                                        "example": "John"
                                    },
                                    "middle_name": {
                                        "type": "string",
                                        "example": "Doe"
                                    },
                                    "last_name": {
                                        "type": "string",
                                        "example": "Smith"
                                    },
                                    "birth_date": {
                                        "type": "string",
                                        "format": "date",
                                        "example": "1990-01-01"
                                    },
                                    "is_man": {
                                        "type": "boolean",
                                        "example": "true"
                                    },
                                    "position_id": {
                                        "type": "integer",
                                        "example": "1"
                                    }
                                },
                                "type": "object"
                            }
                        }
                    }
                },
                "responses": {
                    "201": {
                        "description": "Employee created successfully",
                        "content": {
                            "application/json": {
                                "schema": {
                                    "properties": {
                                        "data": {
                                            "$ref": "#/components/schemas/EmployeeResource"
                                        }
                                    },
                                    "type": "object"
                                }
                            }
                        }
                    },
                    "401": {
                        "description": "Unauthorized",
                        "content": {
                            "application/json": {
                                "schema": {
                                    "properties": {
                                        "message": {
                                            "type": "string",
                                            "example": "Unauthorized"
                                        }
                                    },
                                    "type": "object"
                                }
                            }
                        }
                    },
                    "422": {
                        "description": "Validation error",
                        "content": {
                            "application/json": {
                                "schema": {
                                    "properties": {
                                        "message": {
                                            "type": "string",
                                            "example": "The given data was invalid."
                                        },
                                        "errors": {
                                            "$ref": "#/components/schemas/ValidationError"
                                        }
                                    },
                                    "type": "object"
                                }
                            }
                        }
                    }
                },
                "security": [
                    {
                        "bearerAuth": []
                    }
                ]
            }
        },
        "/api/v1/employees/{employeeId}": {
            "get": {
                "tags": [
                    "Employee"
                ],
                "summary": "Get an employee by ID",
                "description": "Retrieve an employee record by its ID",
                "operationId": "74d1e3c0b6ed1a550a3efe9be5d86653",
                "parameters": [
                    {
                        "name": "employeeId",
                        "in": "path",
                        "description": "ID of the employee to retrieve",
                        "required": true,
                        "schema": {
                            "type": "integer"
                        }
                    }
                ],
                "responses": {
                    "200": {
                        "description": "Employee retrieved successfully",
                        "content": {
                            "application/json": {
                                "schema": {
                                    "properties": {
                                        "data": {
                                            "$ref": "#/components/schemas/EmployeeResource"
                                        }
                                    },
                                    "type": "object"
                                }
                            }
                        }
                    },
                    "401": {
                        "description": "Unauthorized",
                        "content": {
                            "application/json": {
                                "schema": {
                                    "properties": {
                                        "message": {
                                            "type": "string",
                                            "example": "Unauthorized"
                                        }
                                    },
                                    "type": "object"
                                }
                            }
                        }
                    },
                    "404": {
                        "description": "Employee not found",
                        "content": {
                            "application/json": {
                                "schema": {
                                    "properties": {
                                        "message": {
                                            "type": "string",
                                            "example": "Employee not found"
                                        }
                                    },
                                    "type": "object"
                                }
                            }
                        }
                    }
                },
                "security": [
                    {
                        "bearerAuth": []
                    }
                ]
            },
            "put": {
                "tags": [
                    "Employee"
                ],
                "summary": "Update an existing employee",
                "description": "Update an existing employee record",
                "operationId": "7c51ea48f507500440f1789baa82afa8",
                "parameters": [
                    {
                        "name": "employeeId",
                        "in": "path",
                        "description": "ID of the employee to update",
                        "required": true,
                        "schema": {
                            "type": "integer"
                        }
                    }
                ],
                "requestBody": {
                    "description": "Updated employee data",
                    "required": true,
                    "content": {
                        "application/json": {
                            "schema": {
                                "properties": {
                                    "first_name": {
                                        "type": "string",
                                        "example": "John"
                                    },
                                    "middle_name": {
                                        "type": "string",
                                        "example": "Doe"
                                    },
                                    "last_name": {
                                        "type": "string",
                                        "example": "Smith"
                                    },
                                    "birth_date": {
                                        "type": "string",
                                        "format": "date",
                                        "example": "1990-01-01"
                                    },
                                    "is_man": {
                                        "type": "boolean",
                                        "example": "true"
                                    },
                                    "position_id": {
                                        "type": "integer",
                                        "example": "1"
                                    }
                                },
                                "type": "object"
                            }
                        }
                    }
                },
                "responses": {
                    "200": {
                        "description": "Employee updated successfully",
                        "content": {
                            "application/json": {
                                "schema": {
                                    "properties": {
                                        "data": {
                                            "$ref": "#/components/schemas/EmployeeResource"
                                        }
                                    },
                                    "type": "object"
                                }
                            }
                        }
                    },
                    "401": {
                        "description": "Unauthorized",
                        "content": {
                            "application/json": {
                                "schema": {
                                    "properties": {
                                        "message": {
                                            "type": "string",
                                            "example": "Unauthorized"
                                        }
                                    },
                                    "type": "object"
                                }
                            }
                        }
                    },
                    "404": {
                        "description": "Employee not found",
                        "content": {
                            "application/json": {
                                "schema": {
                                    "properties": {
                                        "message": {
                                            "type": "string",
                                            "example": "Employee not found"
                                        }
                                    },
                                    "type": "object"
                                }
                            }
                        }
                    },
                    "422": {
                        "description": "Validation error",
                        "content": {
                            "application/json": {
                                "schema": {
                                    "properties": {
                                        "message": {
                                            "type": "string",
                                            "example": "The given data was invalid."
                                        },
                                        "errors": {
                                            "$ref": "#/components/schemas/ValidationError"
                                        }
                                    },
                                    "type": "object"
                                }
                            }
                        }
                    }
                },
                "security": [
                    {
                        "bearerAuth": []
                    }
                ]
            },
            "delete": {
                "tags": [
                    "Employee"
                ],
                "summary": "Delete an employee by ID",
                "description": "Delete an employee record by its ID",
                "operationId": "38ae9264450c9c9d3c209ab87d76c1cc",
                "parameters": [
                    {
                        "name": "employeeId",
                        "in": "path",
                        "description": "ID of the employee to delete",
                        "required": true,
                        "schema": {
                            "type": "integer"
                        }
                    }
                ],
                "responses": {
                    "200": {
                        "description": "Employee deleted successfully",
                        "content": {
                            "application/json": {
                                "schema": {
                                    "properties": {
                                        "message": {
                                            "type": "string",
                                            "example": "Successfully deleted"
                                        }
                                    },
                                    "type": "object"
                                }
                            }
                        }
                    },
                    "401": {
                        "description": "Unauthorized",
                        "content": {
                            "application/json": {
                                "schema": {
                                    "properties": {
                                        "message": {
                                            "type": "string",
                                            "example": "Unauthorized"
                                        }
                                    },
                                    "type": "object"
                                }
                            }
                        }
                    },
                    "404": {
                        "description": "Employee not found",
                        "content": {
                            "application/json": {
                                "schema": {
                                    "properties": {
                                        "message": {
                                            "type": "string",
                                            "example": "Employee not found"
                                        }
                                    },
                                    "type": "object"
                                }
                            }
                        }
                    }
                },
                "security": [
                    {
                        "bearerAuth": []
                    }
                ]
            }
        },
        "/api/v1/organizations": {
            "get": {
                "tags": [
                    "Organization"
                ],
                "summary": "List organizations",
                "description": "Retrieve a list of organizations",
                "operationId": "6f7fa66e5577238fccf0544a028bc683",
                "parameters": [
                    {
                        "name": "take",
                        "in": "query",
                        "description": "Number of records to take",
                        "required": false,
                        "schema": {
                            "type": "integer",
                            "format": "int32",
                            "maximum": 500,
                            "minimum": 0
                        }
                    },
                    {
                        "name": "skip",
                        "in": "query",
                        "description": "Number of records to skip",
                        "required": false,
                        "schema": {
                            "type": "integer"
                        }
                    },
                    {
                        "name": "from_created_at",
                        "in": "query",
                        "description": "Filter organizations created after this date",
                        "required": false,
                        "schema": {
                            "type": "string",
                            "format": "date"
                        }
                    },
                    {
                        "name": "to_created_at",
                        "in": "query",
                        "description": "Filter organizations created before this date",
                        "required": false,
                        "schema": {
                            "type": "string",
                            "format": "date"
                        }
                    },
                    {
                        "name": "order_by",
                        "in": "query",
                        "description": "Order by a specific field",
                        "required": false,
                        "schema": {
                            "type": "string"
                        }
                    },
                    {
                        "name": "direction",
                        "in": "query",
                        "description": "Sort direction (asc or desc)",
                        "required": false,
                        "schema": {
                            "type": "string",
                            "enum": [
                                "asc",
                                "desc"
                            ]
                        }
                    }
                ],
                "responses": {
                    "200": {
                        "description": "Successful operation",
                        "content": {
                            "application/json": {
                                "schema": {
                                    "properties": {
                                        "data": {
                                            "$ref": "#/components/schemas/OrganizationResourceCollection"
                                        }
                                    },
                                    "type": "object"
                                }
                            }
                        }
                    },
                    "401": {
                        "description": "Unauthorized",
                        "content": {
                            "application/json": {
                                "schema": {
                                    "properties": {
                                        "message": {
                                            "type": "string",
                                            "example": "Unauthorized"
                                        }
                                    },
                                    "type": "object"
                                }
                            }
                        }
                    }
                },
                "security": [
                    {
                        "bearerAuth": []
                    }
                ]
            },
            "post": {
                "tags": [
                    "Organization"
                ],
                "summary": "Create a new organization",
                "description": "Create a new organization record",
                "operationId": "c0f9bbe591cecbc41d3b7658d347e14b",
                "requestBody": {
                    "description": "Organization data",
                    "required": true,
                    "content": {
                        "application/json": {
                            "schema": {
                                "required": [
                                    "name"
                                ],
                                "properties": {
                                    "name": {
                                        "type": "string",
                                        "example": "Company Inc."
                                    },
                                    "description": {
                                        "type": "string",
                                        "example": "Description of the organization"
                                    }
                                },
                                "type": "object"
                            }
                        }
                    }
                },
                "responses": {
                    "201": {
                        "description": "Organization created successfully",
                        "content": {
                            "application/json": {
                                "schema": {
                                    "properties": {
                                        "data": {
                                            "$ref": "#/components/schemas/OrganizationResource"
                                        }
                                    },
                                    "type": "object"
                                }
                            }
                        }
                    },
                    "401": {
                        "description": "Unauthorized",
                        "content": {
                            "application/json": {
                                "schema": {
                                    "properties": {
                                        "message": {
                                            "type": "string",
                                            "example": "Unauthorized"
                                        }
                                    },
                                    "type": "object"
                                }
                            }
                        }
                    },
                    "422": {
                        "description": "Validation error",
                        "content": {
                            "application/json": {
                                "schema": {
                                    "properties": {
                                        "message": {
                                            "type": "string",
                                            "example": "The given data was invalid."
                                        },
                                        "errors": {
                                            "$ref": "#/components/schemas/ValidationError"
                                        }
                                    },
                                    "type": "object"
                                }
                            }
                        }
                    }
                },
                "security": [
                    {
                        "bearerAuth": []
                    }
                ]
            }
        },
        "/api/v1/organizations/{organizationId}": {
            "get": {
                "tags": [
                    "Organization"
                ],
                "summary": "Get an organization by ID",
                "description": "Retrieve an organization record by its ID",
                "operationId": "5f4e657a3a4493d0bc01a98d8b2dc40f",
                "parameters": [
                    {
                        "name": "organizationId",
                        "in": "path",
                        "description": "ID of the organization to retrieve",
                        "required": true,
                        "schema": {
                            "type": "integer"
                        }
                    }
                ],
                "responses": {
                    "200": {
                        "description": "Organization retrieved successfully",
                        "content": {
                            "application/json": {
                                "schema": {
                                    "properties": {
                                        "data": {
                                            "$ref": "#/components/schemas/OrganizationResource"
                                        }
                                    },
                                    "type": "object"
                                }
                            }
                        }
                    },
                    "401": {
                        "description": "Unauthorized",
                        "content": {
                            "application/json": {
                                "schema": {
                                    "properties": {
                                        "message": {
                                            "type": "string",
                                            "example": "Unauthorized"
                                        }
                                    },
                                    "type": "object"
                                }
                            }
                        }
                    },
                    "404": {
                        "description": "Organization not found",
                        "content": {
                            "application/json": {
                                "schema": {
                                    "properties": {
                                        "message": {
                                            "type": "string",
                                            "example": "Organization not found"
                                        }
                                    },
                                    "type": "object"
                                }
                            }
                        }
                    }
                },
                "security": [
                    {
                        "bearerAuth": []
                    }
                ]
            },
            "put": {
                "tags": [
                    "Organization"
                ],
                "summary": "Update an existing organization",
                "description": "Update an existing organization record",
                "operationId": "96b67dca210cf2d3f9b03e65b5dfcbbf",
                "parameters": [
                    {
                        "name": "organizationId",
                        "in": "path",
                        "description": "ID of the organization to update",
                        "required": true,
                        "schema": {
                            "type": "integer"
                        }
                    }
                ],
                "requestBody": {
                    "description": "Updated organization data",
                    "required": true,
                    "content": {
                        "application/json": {
                            "schema": {
                                "properties": {
                                    "name": {
                                        "type": "string",
                                        "example": "Company ABC"
                                    },
                                    "description": {
                                        "type": "string",
                                        "example": "Description of the organization"
                                    }
                                },
                                "type": "object"
                            }
                        }
                    }
                },
                "responses": {
                    "200": {
                        "description": "Organization updated successfully",
                        "content": {
                            "application/json": {
                                "schema": {
                                    "properties": {
                                        "data": {
                                            "$ref": "#/components/schemas/OrganizationResource"
                                        }
                                    },
                                    "type": "object"
                                }
                            }
                        }
                    },
                    "401": {
                        "description": "Unauthorized",
                        "content": {
                            "application/json": {
                                "schema": {
                                    "properties": {
                                        "message": {
                                            "type": "string",
                                            "example": "Unauthorized"
                                        }
                                    },
                                    "type": "object"
                                }
                            }
                        }
                    },
                    "404": {
                        "description": "Organization not found",
                        "content": {
                            "application/json": {
                                "schema": {
                                    "properties": {
                                        "message": {
                                            "type": "string",
                                            "example": "Organization not found"
                                        }
                                    },
                                    "type": "object"
                                }
                            }
                        }
                    },
                    "422": {
                        "description": "Validation error",
                        "content": {
                            "application/json": {
                                "schema": {
                                    "properties": {
                                        "message": {
                                            "type": "string",
                                            "example": "The given data was invalid."
                                        },
                                        "errors": {
                                            "$ref": "#/components/schemas/ValidationError"
                                        }
                                    },
                                    "type": "object"
                                }
                            }
                        }
                    }
                },
                "security": [
                    {
                        "bearerAuth": []
                    }
                ]
            },
            "delete": {
                "tags": [
                    "Organization"
                ],
                "summary": "Delete an organization by ID",
                "description": "Delete an organization record by its ID",
                "operationId": "10d8703287e6284939ed9195ab3089b1",
                "parameters": [
                    {
                        "name": "organizationId",
                        "in": "path",
                        "description": "ID of the organization to delete",
                        "required": true,
                        "schema": {
                            "type": "integer"
                        }
                    }
                ],
                "responses": {
                    "200": {
                        "description": "Organization deleted successfully",
                        "content": {
                            "application/json": {
                                "schema": {
                                    "properties": {
                                        "message": {
                                            "type": "string",
                                            "example": "Successfully deleted"
                                        }
                                    },
                                    "type": "object"
                                }
                            }
                        }
                    },
                    "401": {
                        "description": "Unauthorized",
                        "content": {
                            "application/json": {
                                "schema": {
                                    "properties": {
                                        "message": {
                                            "type": "string",
                                            "example": "Unauthorized"
                                        }
                                    },
                                    "type": "object"
                                }
                            }
                        }
                    },
                    "404": {
                        "description": "Organization not found",
                        "content": {
                            "application/json": {
                                "schema": {
                                    "properties": {
                                        "message": {
                                            "type": "string",
                                            "example": "Organization not found"
                                        }
                                    },
                                    "type": "object"
                                }
                            }
                        }
                    }
                },
                "security": [
                    {
                        "bearerAuth": []
                    }
                ]
            }
        },
        "/api/v1/positions": {
            "get": {
                "tags": [
                    "Position"
                ],
                "summary": "List positions",
                "description": "Retrieve a list of positions",
                "operationId": "485a2d7b4e73ca399f5d37d83f41a47c",
                "parameters": [
                    {
                        "name": "take",
                        "in": "query",
                        "description": "Number of records to take",
                        "required": false,
                        "schema": {
                            "type": "integer",
                            "format": "int32",
                            "maximum": 500,
                            "minimum": 0
                        }
                    },
                    {
                        "name": "skip",
                        "in": "query",
                        "description": "Number of records to skip",
                        "required": false,
                        "schema": {
                            "type": "integer"
                        }
                    },
                    {
                        "name": "from_created_at",
                        "in": "query",
                        "description": "Filter positions created after this date",
                        "required": false,
                        "schema": {
                            "type": "string",
                            "format": "date"
                        }
                    },
                    {
                        "name": "to_created_at",
                        "in": "query",
                        "description": "Filter positions created before this date",
                        "required": false,
                        "schema": {
                            "type": "string",
                            "format": "date"
                        }
                    },
                    {
                        "name": "order_by",
                        "in": "query",
                        "description": "Order by a specific field",
                        "required": false,
                        "schema": {
                            "type": "string"
                        }
                    },
                    {
                        "name": "direction",
                        "in": "query",
                        "description": "Sort direction (asc or desc)",
                        "required": false,
                        "schema": {
                            "type": "string",
                            "enum": [
                                "asc",
                                "desc"
                            ]
                        }
                    },
                    {
                        "name": "department_id",
                        "in": "query",
                        "description": "Filter positions by department ID",
                        "required": false,
                        "schema": {
                            "type": "integer"
                        }
                    }
                ],
                "responses": {
                    "200": {
                        "description": "Successful operation",
                        "content": {
                            "application/json": {
                                "schema": {
                                    "properties": {
                                        "data": {
                                            "$ref": "#/components/schemas/PositionResourceCollection"
                                        }
                                    },
                                    "type": "object"
                                }
                            }
                        }
                    },
                    "401": {
                        "description": "Unauthorized",
                        "content": {
                            "application/json": {
                                "schema": {
                                    "properties": {
                                        "message": {
                                            "type": "string",
                                            "example": "Unauthorized"
                                        }
                                    },
                                    "type": "object"
                                }
                            }
                        }
                    }
                },
                "security": [
                    {
                        "bearerAuth": []
                    }
                ]
            },
            "post": {
                "tags": [
                    "Position"
                ],
                "summary": "Create a new position",
                "description": "Create a new position record",
                "operationId": "cd9d2d2fcc0d22ae876f0e566a21e3ce",
                "requestBody": {
                    "description": "Position data",
                    "required": true,
                    "content": {
                        "application/json": {
                            "schema": {
                                "required": [
                                    "name",
                                    "department_id"
                                ],
                                "properties": {
                                    "name": {
                                        "type": "string",
                                        "example": "Manager"
                                    },
                                    "description": {
                                        "type": "string",
                                        "example": "Description of the position"
                                    },
                                    "department_id": {
                                        "type": "integer",
                                        "example": "1"
                                    }
                                },
                                "type": "object"
                            }
                        }
                    }
                },
                "responses": {
                    "201": {
                        "description": "Position created successfully",
                        "content": {
                            "application/json": {
                                "schema": {
                                    "properties": {
                                        "data": {
                                            "$ref": "#/components/schemas/PositionResource"
                                        }
                                    },
                                    "type": "object"
                                }
                            }
                        }
                    },
                    "401": {
                        "description": "Unauthorized",
                        "content": {
                            "application/json": {
                                "schema": {
                                    "properties": {
                                        "message": {
                                            "type": "string",
                                            "example": "Unauthorized"
                                        }
                                    },
                                    "type": "object"
                                }
                            }
                        }
                    },
                    "422": {
                        "description": "Validation error",
                        "content": {
                            "application/json": {
                                "schema": {
                                    "properties": {
                                        "message": {
                                            "type": "string",
                                            "example": "The given data was invalid."
                                        },
                                        "errors": {
                                            "$ref": "#/components/schemas/ValidationError"
                                        }
                                    },
                                    "type": "object"
                                }
                            }
                        }
                    }
                },
                "security": [
                    {
                        "bearerAuth": []
                    }
                ]
            }
        },
        "/api/v1/positions/{positionId}": {
            "get": {
                "tags": [
                    "Position"
                ],
                "summary": "Get a position by ID",
                "description": "Retrieve a position record by its ID",
                "operationId": "082f2287329edc2789dbc99c144cb3e2",
                "parameters": [
                    {
                        "name": "positionId",
                        "in": "path",
                        "description": "ID of the position to retrieve",
                        "required": true,
                        "schema": {
                            "type": "integer"
                        }
                    }
                ],
                "responses": {
                    "200": {
                        "description": "Position retrieved successfully",
                        "content": {
                            "application/json": {
                                "schema": {
                                    "properties": {
                                        "data": {
                                            "$ref": "#/components/schemas/PositionResource"
                                        }
                                    },
                                    "type": "object"
                                }
                            }
                        }
                    },
                    "401": {
                        "description": "Unauthorized",
                        "content": {
                            "application/json": {
                                "schema": {
                                    "properties": {
                                        "message": {
                                            "type": "string",
                                            "example": "Unauthorized"
                                        }
                                    },
                                    "type": "object"
                                }
                            }
                        }
                    },
                    "404": {
                        "description": "Position not found",
                        "content": {
                            "application/json": {
                                "schema": {
                                    "properties": {
                                        "message": {
                                            "type": "string",
                                            "example": "Position not found"
                                        }
                                    },
                                    "type": "object"
                                }
                            }
                        }
                    }
                },
                "security": [
                    {
                        "bearerAuth": []
                    }
                ]
            },
            "put": {
                "tags": [
                    "Position"
                ],
                "summary": "Update an existing position",
                "description": "Update an existing position record",
                "operationId": "ec944079eb4ff8b6843952178eebad33",
                "parameters": [
                    {
                        "name": "positionId",
                        "in": "path",
                        "description": "ID of the position to update",
                        "required": true,
                        "schema": {
                            "type": "integer"
                        }
                    }
                ],
                "requestBody": {
                    "description": "Updated position data",
                    "required": true,
                    "content": {
                        "application/json": {
                            "schema": {
                                "properties": {
                                    "name": {
                                        "type": "string",
                                        "example": "Manager"
                                    },
                                    "description": {
                                        "type": "string",
                                        "example": "Description of the position"
                                    },
                                    "department_id": {
                                        "type": "integer",
                                        "example": "1"
                                    }
                                },
                                "type": "object"
                            }
                        }
                    }
                },
                "responses": {
                    "200": {
                        "description": "Position updated successfully",
                        "content": {
                            "application/json": {
                                "schema": {
                                    "properties": {
                                        "data": {
                                            "$ref": "#/components/schemas/PositionResource"
                                        }
                                    },
                                    "type": "object"
                                }
                            }
                        }
                    },
                    "401": {
                        "description": "Unauthorized",
                        "content": {
                            "application/json": {
                                "schema": {
                                    "properties": {
                                        "message": {
                                            "type": "string",
                                            "example": "Unauthorized"
                                        }
                                    },
                                    "type": "object"
                                }
                            }
                        }
                    },
                    "404": {
                        "description": "Position not found",
                        "content": {
                            "application/json": {
                                "schema": {
                                    "properties": {
                                        "message": {
                                            "type": "string",
                                            "example": "Position not found"
                                        }
                                    },
                                    "type": "object"
                                }
                            }
                        }
                    },
                    "422": {
                        "description": "Validation error",
                        "content": {
                            "application/json": {
                                "schema": {
                                    "properties": {
                                        "message": {
                                            "type": "string",
                                            "example": "The given data was invalid."
                                        },
                                        "errors": {
                                            "$ref": "#/components/schemas/ValidationError"
                                        }
                                    },
                                    "type": "object"
                                }
                            }
                        }
                    }
                },
                "security": [
                    {
                        "bearerAuth": []
                    }
                ]
            },
            "delete": {
                "tags": [
                    "Position"
                ],
                "summary": "Delete a position by ID",
                "description": "Delete a position record by its ID",
                "operationId": "998e56558a40af7b415593065b74ce60",
                "parameters": [
                    {
                        "name": "positionId",
                        "in": "path",
                        "description": "ID of the position to delete",
                        "required": true,
                        "schema": {
                            "type": "integer"
                        }
                    }
                ],
                "responses": {
                    "200": {
                        "description": "Position deleted successfully",
                        "content": {
                            "application/json": {
                                "schema": {
                                    "properties": {
                                        "message": {
                                            "type": "string",
                                            "example": "Successfully deleted"
                                        }
                                    },
                                    "type": "object"
                                }
                            }
                        }
                    },
                    "401": {
                        "description": "Unauthorized",
                        "content": {
                            "application/json": {
                                "schema": {
                                    "properties": {
                                        "message": {
                                            "type": "string",
                                            "example": "Unauthorized"
                                        }
                                    },
                                    "type": "object"
                                }
                            }
                        }
                    },
                    "404": {
                        "description": "Position not found",
                        "content": {
                            "application/json": {
                                "schema": {
                                    "properties": {
                                        "message": {
                                            "type": "string",
                                            "example": "Position not found"
                                        }
                                    },
                                    "type": "object"
                                }
                            }
                        }
                    }
                },
                "security": [
                    {
                        "bearerAuth": []
                    }
                ]
            }
        }
    },
    "components": {
        "schemas": {
            "UserResource": {
                "properties": {
                    "id": {
                        "type": "integer"
                    },
                    "name": {
                        "type": "string"
                    },
                    "email": {
                        "type": "string",
                        "format": "email"
                    },
                    "created_at": {
                        "type": "string",
                        "format": "date-time"
                    },
                    "updated_at": {
                        "type": "string",
                        "format": "date-time"
                    }
                },
                "type": "object"
            },
            "ValidationError": {
                "properties": {
                    "message": {
                        "type": "string"
                    },
                    "errors": {
                        "type": "object"
                    }
                },
                "type": "object"
            },
            "DepartmentResourceCollection": {
                "type": "array",
                "items": {
                    "properties": {
                        "id": {
                            "type": "integer"
                        },
                        "name": {
                            "type": "string"
                        },
                        "description": {
                            "type": "string"
                        },
                        "organization_id": {
                            "type": "integer"
                        },
                        "created_at": {
                            "type": "string",
                            "format": "date-time"
                        }
                    },
                    "type": "object"
                }
            },
            "DepartmentResource": {
                "properties": {
                    "id": {
                        "type": "integer"
                    },
                    "name": {
                        "type": "string"
                    },
                    "description": {
                        "type": "string"
                    },
                    "organization_id": {
                        "type": "integer"
                    },
                    "created_at": {
                        "type": "string",
                        "format": "date-time"
                    }
                },
                "type": "object"
            },
            "EmployeeResource": {
                "type": "array",
                "items": {
                    "properties": {
                        "id": {
                            "type": "integer"
                        },
                        "first_name": {
                            "type": "string"
                        },
                        "middle_name": {
                            "type": "string"
                        },
                        "last_name": {
                            "type": "string"
                        },
                        "birth_date": {
                            "type": "string",
                            "format": "date"
                        },
                        "position_id": {
                            "type": "integer"
                        },
                        "is_man": {
                            "type": "boolean"
                        },
                        "created_at": {
                            "type": "string",
                            "format": "date-time"
                        }
                    },
                    "type": "object"
                }
            },
            "OrganizationResourceCollection": {
                "type": "array",
                "items": {
                    "properties": {
                        "id": {
                            "type": "integer"
                        },
                        "name": {
                            "type": "string"
                        },
                        "description": {
                            "type": "string"
                        },
                        "created_at": {
                            "type": "string",
                            "format": "date-time"
                        }
                    },
                    "type": "object"
                }
            },
            "OrganizationResource": {
                "properties": {
                    "id": {
                        "type": "integer"
                    },
                    "name": {
                        "type": "string"
                    },
                    "description": {
                        "type": "string"
                    },
                    "created_at": {
                        "type": "string",
                        "format": "date-time"
                    }
                },
                "type": "object"
            },
            "PositionResourceCollection": {
                "type": "array",
                "items": {
                    "properties": {
                        "id": {
                            "type": "integer"
                        },
                        "name": {
                            "type": "string"
                        },
                        "description": {
                            "type": "string"
                        },
                        "department_id": {
                            "type": "integer"
                        },
                        "created_at": {
                            "type": "string",
                            "format": "date-time"
                        }
                    },
                    "type": "object"
                }
            },
            "PositionResource": {
                "properties": {
                    "id": {
                        "type": "integer"
                    },
                    "name": {
                        "type": "string"
                    },
                    "description": {
                        "type": "string"
                    },
                    "department_id": {
                        "type": "integer"
                    },
                    "created_at": {
                        "type": "string",
                        "format": "date-time"
                    }
                },
                "type": "object"
            }
        },
        "securitySchemes": {
            "bearerAuth": {
                "type": "http",
                "scheme": "bearer"
            }
        }
    }
}